%YAML 1.1
%TAG !u! tag:unity3d.com,2011:
--- !u!74 &7400000
AnimationClip:
  m_ObjectHideFlags: 0
  m_CorrespondingSourceObject: {fileID: 0}
  m_PrefabInstance: {fileID: 0}
  m_PrefabAsset: {fileID: 0}
  m_Name: Box_Idle
  serializedVersion: 6
  m_Legacy: 0
  m_Compressed: 0
  m_UseHighQualityCurve: 1
  m_RotationCurves: []
  m_CompressedRotationCurves: []
  m_EulerCurves: []
  m_PositionCurves: []
  m_ScaleCurves: []
  m_FloatCurves: []
  m_PPtrCurves:
  - curve:
    - time: 0
      value: {fileID: 21300000, guid: 93507c14ec87f7e4abb8346dedc7a1fc, type: 3}
    - time: 0.16666667
      value: {fileID: 21300000, guid: a6717ac3b0884e54baa99ab227663ad6, type: 3}
    - time: 0.33333334
      value: {fileID: 21300000, guid: d836e87601886f042b2d0b5acd43e275, type: 3}
    - time: 0.5
      value: {fileID: 21300000, guid: 896eb631c3bb6af4699b215593b35a61, type: 3}
    - time: 0.6666667
      value: {fileID: 21300000, guid: 4144f4cae1f37484487ada6a3e6d6489, type: 3}
    - time: 0.825
      value: {fileID: 21300000, guid: 4144f4cae1f37484487ada6a3e6d6489, type: 3}
    attribute: m_Sprite
    path: 
    classID: 212
    script: {fileID: 0}
  m_SampleRate: 240
  m_WrapMode: 0
  m_Bounds:
    m_Center: {x: 0, y: 0, z: 0}
    m_Extent: {x: 0, y: 0, z: 0}
  m_ClipBindingConstant:
    genericBindings:
    - serializedVersion: 2
      path: 0
      attribute: 0
      script: {fileID: 0}
      typeID: 212
      customType: 23
      isPPtrCurve: 1
    pptrCurveMapping:
    - {fileID: 21300000, guid: 93507c14ec87f7e4abb8346dedc7a1fc, type: 3}
    - {fileID: 21300000, guid: a6717ac3b0884e54baa99ab227663ad6, type: 3}
    - {fileID: 21300000, guid: d836e87601886f042b2d0b5acd43e275, type: 3}
    - {fileID: 21300000, guid: 896eb631c3bb6af4699b215593b35a61, type: 3}
    - {fileID: 21300000, guid: 4144f4cae1f37484487ada6a3e6d6489, type: 3}
    - {fileID: 21300000, guid: 4144f4cae1f37484487ada6a3e6d6489, type: 3}
  m_AnimationClipSettings:
    serializedVersion: 2
    m_AdditiveReferencePoseClip: {fileID: 0}
    m_AdditiveReferencePoseTime: 0
    m_StartTime: 0
    m_StopTime: 0.82916665
    m_OrientationOffsetY: 0
    m_Level: 0
    m_CycleOffset: 0
    m_HasAdditiveReferencePose: 0
    m_LoopTime: 1
    m_LoopBlend: 0
    m_LoopBlendOrientation: 0
    m_LoopBlendPositionY: 0
    m_LoopBlendPositionXZ: 0
    m_KeepOriginalOrientation: 0
    m_KeepOriginalPositionY: 1
    m_KeepOriginalPositionXZ: 0
    m_HeightFromFeet: 0
    m_Mirror: 0
  m_EditorCurves: []
  m_EulerEditorCurves: []
  m_HasGenericRootTransform: 0
  m_HasMotionFloatCurves: 0
  m_Events: []
