%YAML 1.1
%TAG !u! tag:unity3d.com,2011:
--- !u!114 &3189573488135743679
MonoBehaviour:
  m_ObjectHideFlags: 0
  m_CorrespondingSourceObject: {fileID: 0}
  m_PrefabInstance: {fileID: 0}
  m_PrefabAsset: {fileID: 0}
  m_GameObject: {fileID: 8676028909492464020}
  m_Enabled: 1
  m_EditorHideFlags: 0
  m_Script: {fileID: 11500000, guid: 9e341e658ddaf84428675de59a7d82aa, type: 3}
  m_Name: 
  m_EditorClassIdentifier: 
--- !u!1001 &5914702298997732
PrefabInstance:
  m_ObjectHideFlags: 0
  serializedVersion: 2
  m_Modification:
    m_TransformParent: {fileID: 0}
    m_Modifications:
    - target: {fileID: 8679123885723650672, guid: 4b837f2a431c99c4dab3dc73e8ca4549,
        type: 3}
      propertyPath: m_Name
      value: CollisionSmoke Variant
      objectReference: {fileID: 0}
    - target: {fileID: 6726243366696738185, guid: 4b837f2a431c99c4dab3dc73e8ca4549,
        type: 3}
      propertyPath: m_LocalPosition.x
      value: 0
      objectReference: {fileID: 0}
    - target: {fileID: 6726243366696738185, guid: 4b837f2a431c99c4dab3dc73e8ca4549,
        type: 3}
      propertyPath: m_LocalPosition.y
      value: 0
      objectReference: {fileID: 0}
    - target: {fileID: 6726243366696738185, guid: 4b837f2a431c99c4dab3dc73e8ca4549,
        type: 3}
      propertyPath: m_LocalPosition.z
      value: 0
      objectReference: {fileID: 0}
    - target: {fileID: 6726243366696738185, guid: 4b837f2a431c99c4dab3dc73e8ca4549,
        type: 3}
      propertyPath: m_LocalRotation.x
      value: 0
      objectReference: {fileID: 0}
    - target: {fileID: 6726243366696738185, guid: 4b837f2a431c99c4dab3dc73e8ca4549,
        type: 3}
      propertyPath: m_LocalRotation.y
      value: 0
      objectReference: {fileID: 0}
    - target: {fileID: 6726243366696738185, guid: 4b837f2a431c99c4dab3dc73e8ca4549,
        type: 3}
      propertyPath: m_LocalRotation.z
      value: 0
      objectReference: {fileID: 0}
    - target: {fileID: 6726243366696738185, guid: 4b837f2a431c99c4dab3dc73e8ca4549,
        type: 3}
      propertyPath: m_LocalRotation.w
      value: 1
      objectReference: {fileID: 0}
    - target: {fileID: 6726243366696738185, guid: 4b837f2a431c99c4dab3dc73e8ca4549,
        type: 3}
      propertyPath: m_RootOrder
      value: 0
      objectReference: {fileID: 0}
    - target: {fileID: 6726243366696738185, guid: 4b837f2a431c99c4dab3dc73e8ca4549,
        type: 3}
      propertyPath: m_LocalEulerAnglesHint.x
      value: 0
      objectReference: {fileID: 0}
    - target: {fileID: 6726243366696738185, guid: 4b837f2a431c99c4dab3dc73e8ca4549,
        type: 3}
      propertyPath: m_LocalEulerAnglesHint.y
      value: 0
      objectReference: {fileID: 0}
    - target: {fileID: 6726243366696738185, guid: 4b837f2a431c99c4dab3dc73e8ca4549,
        type: 3}
      propertyPath: m_LocalEulerAnglesHint.z
      value: 0
      objectReference: {fileID: 0}
    - target: {fileID: 2006733315098163536, guid: 4b837f2a431c99c4dab3dc73e8ca4549,
        type: 3}
      propertyPath: m_Color.r
      value: 0.9339623
      objectReference: {fileID: 0}
    - target: {fileID: 2006733315098163536, guid: 4b837f2a431c99c4dab3dc73e8ca4549,
        type: 3}
      propertyPath: m_Color.g
      value: 0.5724098
      objectReference: {fileID: 0}
    - target: {fileID: 2006733315098163536, guid: 4b837f2a431c99c4dab3dc73e8ca4549,
        type: 3}
      propertyPath: m_Color.b
      value: 0.2775454
      objectReference: {fileID: 0}
    m_RemovedComponents: []
  m_SourcePrefab: {fileID: 100100000, guid: 4b837f2a431c99c4dab3dc73e8ca4549, type: 3}
--- !u!1 &8676028909492464020 stripped
GameObject:
  m_CorrespondingSourceObject: {fileID: 8679123885723650672, guid: 4b837f2a431c99c4dab3dc73e8ca4549,
    type: 3}
  m_PrefabInstance: {fileID: 5914702298997732}
  m_PrefabAsset: {fileID: 0}
